{
  "extends": ["gitlab>vito-templates/renovate-bot"],
  "packageRules": [
    {
      "matchPackageNames": ["node", "@types/node"],
      "allowedVersions": "/^\\d+[02468]/"
    },
    {
      "matchDatasources": ["npm"],
      "matchUpdateTypes": ["minor", "patch"],
      "automerge": true,
      "extends": ["schedule:daily"],
      "prHourlyLimit": 10
    },
    {
      "matchPackageNames": ["node"],
      "matchUpdateTypes": ["minor", "patch", "digest"],
      "automerge": true
    },
    {
      "matchDatasources": ["npm"],
      "matchPackageNames": ["eslint"],
      "matchUpdateTypes": ["major"],
      "enabled": false
    }
  ],
  "assignees": ["vitoyucepi"]
}
